digital_work/300_wishbone_conmax/sim/run/vcs.log
Command: vcs -R -Mupdate +plusarg_save +ntb_random_seed_automatic -P /eda/verdi/verdi3_2012/share/PLI/VCS/LINUX/novas.tab \
/eda/verdi/verdi3_2012/share/PLI/VCS/LINUX/pli.a +v2k -assert svaext -cm assert +vpi \
+neg_tchk -negdelay -lca +sdfverbose +notimingcheck -sverilog +define+ -timescale=1ns/1ps \
-debug_all -f ../bin/rtl.flist -l vcs.log
                         Chronologic VCS (TM)
            Version G-2012.09 -- Fri Nov 29 18:40:30 2019
               Copyright (c) 1991-2012 by Synopsys Inc.
                         ALL RIGHTS RESERVED

This program is proprietary and confidential information of Synopsys Inc.
and may be used and disclosed only as authorized in a license agreement
controlling such use and disclosure.


Warning-[LCA_FEATURES_ENABLED] Usage warning
  LCA features enabled by '-lca' argument on the command line.  For more 
  information regarding list of LCA features please refer to Chapter "LCA 
  features" in the VCS/VCS-MX Release Notes

Parsing design file '../../bench/test_bench_top.v'
Parsing included file '../../bench/test.v'.
Back to file '../../bench/test_bench_top.v'.
Parsing design file '../../bench/wb_mast_model.v'
Parsing design file '../../bench/wb_slv_model.v'
Parsing design file '../../rtl/wb_conmax_pri_enc.v'
Parsing design file '../../rtl/wb_conmax_arb.v'
Parsing design file '../../rtl/wb_conmax_rf.v'
Parsing design file '../../rtl/wb_conmax_slave_if.v'
Parsing design file '../../rtl/wb_conmax_top.v'
Parsing design file '../../rtl/wb_conmax_msel.v'
Parsing design file '../../rtl/wb_conmax_pri_dec.v'
Parsing design file '../../rtl/wb_conmax_master_if.v'
Top Level Modules:
       test
TimeScale is 1 ns / 1 ps
Starting vcs inline pass...
8 modules and 0 UDP read.
	However, due to incremental compilation, only 1 module needs to be compiled.
recompiling module test because:
	This module or some inlined child module(s) has/have been modified.
ld -r -m elf_i386 -o pre_vcsobj_0_1.o --whole-archive pre_vcsobj_0_1.a --no-whole-archive \

if [ -x ../simv ]; then chmod -x ../simv; fi
g++  -o ../simv -melf_i386    -Wl,-whole-archive    -Wl,-no-whole-archive  _vcsobj_1_1.o \
5NrI_d.o 5NrIB_d.o SIM_l.o    pre_vcsobj_0_1.o  rmapats_mop.o rmapats.o       /eda/synopsys/vcs/2012.09/linux/lib/libnplex_stub.so \
/eda/synopsys/vcs/2012.09/linux/lib/libvirsim.so /eda/synopsys/vcs/2012.09/linux/lib/librterrorinf.so \
/eda/synopsys/vcs/2012.09/linux/lib/libsnpsmalloc.so /eda/verdi/verdi3_2012/share/PLI/VCS/LINUX/pli.a \
/eda/synopsys/vcs/2012.09/linux/lib/libvcsnew.so /eda/synopsys/vcs/2012.09/linux/lib/libreader_common.so \
/eda/synopsys/vcs/2012.09/linux/lib/libBA.a /eda/synopsys/vcs/2012.09/linux/lib/libuclinative.so \
/eda/synopsys/vcs/2012.09/linux/lib/vcs_save_restore_new.o /eda/synopsys/vcs/2012.09/linux/lib/ctype-stubs_32.a \
-ldl -lm -lm  -lc -lpthread -ldl 
../simv up to date
Command: ./simv +ntb_random_seed_automatic +v2k -cm_runsilent -cm assert +neg_tchk -lca +sdfverbose +notimingcheck +define+ -a vcs.log
Chronologic VCS simulator copyright 1991-2012
Contains Synopsys proprietary information.
Compiler version G-2012.09; Runtime version G-2012.09;  Nov 29 18:40 2019
NOTE: automatic random seed used: 2585660426
*Novas* Loading libsscore_vcs201209.so
*Novas* : Enable Parallel Dumping.



*****************************************************
* WISHBONE Connection Matrix Simulation started ... *
*****************************************************


Novas FSDB Dumper for VCS, Release Verdi3_2012.10, Linux, 10/23/2012
Copyright (C) 1996 - 2012 by SpringSoft, Inc.
*Novas* : Create FSDB file 'top.fsdb'
*Novas* : Begin traversing the scopes, layer (0).
*Novas* : End of traversing.

INFO: WISHBONE MASTER MODEL INSTANTIATED (test.m0)


INFO: WISHBONE MASTER MODEL INSTANTIATED (test.m1)


INFO: WISHBONE MASTER MODEL INSTANTIATED (test.m2)


INFO: WISHBONE MASTER MODEL INSTANTIATED (test.m3)


INFO: WISHBONE MASTER MODEL INSTANTIATED (test.m4)


INFO: WISHBONE MASTER MODEL INSTANTIATED (test.m5)


INFO: WISHBONE MASTER MODEL INSTANTIATED (test.m6)


INFO: WISHBONE MASTER MODEL INSTANTIATED (test.m7)


INFO: WISHBONE MEMORY MODEL INSTANTIATED (test.s0)
      Memory Size 13 address lines 8192 words


INFO: WISHBONE MEMORY MODEL INSTANTIATED (test.s1)
      Memory Size 13 address lines 8192 words


INFO: WISHBONE MEMORY MODEL INSTANTIATED (test.s2)
      Memory Size 13 address lines 8192 words


INFO: WISHBONE MEMORY MODEL INSTANTIATED (test.s3)
      Memory Size 13 address lines 8192 words


INFO: WISHBONE MEMORY MODEL INSTANTIATED (test.s4)
      Memory Size 13 address lines 8192 words


INFO: WISHBONE MEMORY MODEL INSTANTIATED (test.s5)
      Memory Size 13 address lines 8192 words


INFO: WISHBONE MEMORY MODEL INSTANTIATED (test.s6)
      Memory Size 13 address lines 8192 words


INFO: WISHBONE MEMORY MODEL INSTANTIATED (test.s7)
      Memory Size 13 address lines 8192 words


INFO: WISHBONE MEMORY MODEL INSTANTIATED (test.s8)
      Memory Size 13 address lines 8192 words


INFO: WISHBONE MEMORY MODEL INSTANTIATED (test.s9)
      Memory Size 13 address lines 8192 words


INFO: WISHBONE MEMORY MODEL INSTANTIATED (test.s10)
      Memory Size 13 address lines 8192 words


INFO: WISHBONE MEMORY MODEL INSTANTIATED (test.s11)
      Memory Size 13 address lines 8192 words


INFO: WISHBONE MEMORY MODEL INSTANTIATED (test.s12)
      Memory Size 13 address lines 8192 words


INFO: WISHBONE MEMORY MODEL INSTANTIATED (test.s13)
      Memory Size 13 address lines 8192 words


INFO: WISHBONE MEMORY MODEL INSTANTIATED (test.s14)
      Memory Size 13 address lines 8192 words


INFO: WISHBONE MEMORY MODEL INSTANTIATED (test.s15)
      Memory Size 13 address lines 8192 words

 ......................................................
 :                                                    :
 :    Regression Run ...                              :
 :....................................................:



*****************************************************
*** Datapath 1 Test ...                           ***
*****************************************************

Mode: 0
Mode: 1
Mode: 2
Mode: 3
Mode: 4
Mode: 5
Mode: 6
Mode: 7
Mode: 8
Mode: 9
Mode: 10
Mode: 11
Mode: 12
Mode: 13
Mode: 14
Mode: 15


     +--------------------+
     |  Total ERRORS: 0   |
     +--------------------+
*****************************************************
*** Test DONE ...                                 ***
*****************************************************





*****************************************************
*** Register File Test ...                        ***
*****************************************************

Mode: 0
Mode: 1
Mode: 2
Mode: 3
Mode: 4


     +--------------------+
     |  Total ERRORS: 0   |
     +--------------------+
*****************************************************
*** Test DONE ...                                 ***
*****************************************************





*****************************************************
*** Arb. 1 Test ...                               ***
*****************************************************

Delay: 0
Delay: 1
Delay: 2
Delay: 3
Delay: 4


     +--------------------+
     |  Total ERRORS: 0   |
     +--------------------+
*****************************************************
*** Test DONE ...                                 ***
*****************************************************





*****************************************************
*** Arb. 2 Test ...                               ***
*****************************************************

Mode: 0 del: 0, siz: 1
Mode: 0 del: 0, siz: 2
Mode: 0 del: 0, siz: 3
Mode: 0 del: 0, siz: 4
Mode: 0 del: 1, siz: 1
Mode: 0 del: 1, siz: 2
Mode: 0 del: 1, siz: 3
Mode: 0 del: 1, siz: 4
Mode: 0 del: 2, siz: 1
Mode: 0 del: 2, siz: 2
Mode: 0 del: 2, siz: 3
Mode: 0 del: 2, siz: 4
Mode: 0 del: 3, siz: 1
Mode: 0 del: 3, siz: 2
Mode: 0 del: 3, siz: 3
Mode: 0 del: 3, siz: 4
Mode: 0 del: 4, siz: 1
Mode: 0 del: 4, siz: 2
Mode: 0 del: 4, siz: 3
Mode: 0 del: 4, siz: 4
Mode: 0 del: 5, siz: 1
Mode: 0 del: 5, siz: 2
Mode: 0 del: 5, siz: 3
Mode: 0 del: 5, siz: 4
Mode: 0 del: 6, siz: 1
Mode: 0 del: 6, siz: 2
Mode: 0 del: 6, siz: 3
Mode: 0 del: 6, siz: 4
Mode: 1 del: 0, siz: 1
Mode: 1 del: 0, siz: 2
Mode: 1 del: 0, siz: 3
Mode: 1 del: 0, siz: 4
Mode: 1 del: 1, siz: 1
Mode: 1 del: 1, siz: 2
Mode: 1 del: 1, siz: 3
Mode: 1 del: 1, siz: 4
Mode: 1 del: 2, siz: 1
Mode: 1 del: 2, siz: 2
Mode: 1 del: 2, siz: 3
Mode: 1 del: 2, siz: 4
Mode: 1 del: 3, siz: 1
Mode: 1 del: 3, siz: 2
Mode: 1 del: 3, siz: 3
Mode: 1 del: 3, siz: 4
Mode: 1 del: 4, siz: 1
Mode: 1 del: 4, siz: 2
Mode: 1 del: 4, siz: 3
Mode: 1 del: 4, siz: 4
Mode: 1 del: 5, siz: 1
Mode: 1 del: 5, siz: 2
Mode: 1 del: 5, siz: 3
Mode: 1 del: 5, siz: 4
Mode: 1 del: 6, siz: 1
Mode: 1 del: 6, siz: 2
Mode: 1 del: 6, siz: 3
Mode: 1 del: 6, siz: 4
Mode: 2 del: 0, siz: 1
Mode: 2 del: 0, siz: 2
Mode: 2 del: 0, siz: 3
Mode: 2 del: 0, siz: 4
Mode: 2 del: 1, siz: 1
Mode: 2 del: 1, siz: 2
Mode: 2 del: 1, siz: 3
Mode: 2 del: 1, siz: 4
Mode: 2 del: 2, siz: 1
Mode: 2 del: 2, siz: 2
Mode: 2 del: 2, siz: 3
Mode: 2 del: 2, siz: 4
Mode: 2 del: 3, siz: 1
Mode: 2 del: 3, siz: 2
Mode: 2 del: 3, siz: 3
Mode: 2 del: 3, siz: 4
Mode: 2 del: 4, siz: 1
Mode: 2 del: 4, siz: 2
Mode: 2 del: 4, siz: 3
Mode: 2 del: 4, siz: 4
Mode: 2 del: 5, siz: 1
Mode: 2 del: 5, siz: 2
Mode: 2 del: 5, siz: 3
Mode: 2 del: 5, siz: 4
Mode: 2 del: 6, siz: 1
Mode: 2 del: 6, siz: 2
Mode: 2 del: 6, siz: 3
Mode: 2 del: 6, siz: 4
Mode: 3 del: 0, siz: 1
Mode: 3 del: 0, siz: 2
Mode: 3 del: 0, siz: 3
Mode: 3 del: 0, siz: 4
Mode: 3 del: 1, siz: 1
Mode: 3 del: 1, siz: 2
Mode: 3 del: 1, siz: 3
Mode: 3 del: 1, siz: 4
Mode: 3 del: 2, siz: 1
Mode: 3 del: 2, siz: 2
Mode: 3 del: 2, siz: 3
Mode: 3 del: 2, siz: 4
Mode: 3 del: 3, siz: 1
Mode: 3 del: 3, siz: 2
Mode: 3 del: 3, siz: 3
Mode: 3 del: 3, siz: 4
Mode: 3 del: 4, siz: 1
Mode: 3 del: 4, siz: 2
Mode: 3 del: 4, siz: 3
Mode: 3 del: 4, siz: 4
Mode: 3 del: 5, siz: 1
Mode: 3 del: 5, siz: 2
Mode: 3 del: 5, siz: 3
Mode: 3 del: 5, siz: 4
Mode: 3 del: 6, siz: 1
Mode: 3 del: 6, siz: 2
Mode: 3 del: 6, siz: 3
Mode: 3 del: 6, siz: 4
Mode: 4 del: 0, siz: 1
Mode: 4 del: 0, siz: 2
Mode: 4 del: 0, siz: 3
Mode: 4 del: 0, siz: 4
Mode: 4 del: 1, siz: 1
Mode: 4 del: 1, siz: 2
Mode: 4 del: 1, siz: 3
Mode: 4 del: 1, siz: 4
Mode: 4 del: 2, siz: 1
Mode: 4 del: 2, siz: 2
Mode: 4 del: 2, siz: 3
Mode: 4 del: 2, siz: 4
Mode: 4 del: 3, siz: 1
Mode: 4 del: 3, siz: 2
Mode: 4 del: 3, siz: 3
Mode: 4 del: 3, siz: 4
Mode: 4 del: 4, siz: 1
Mode: 4 del: 4, siz: 2
Mode: 4 del: 4, siz: 3
Mode: 4 del: 4, siz: 4
Mode: 4 del: 5, siz: 1
Mode: 4 del: 5, siz: 2
Mode: 4 del: 5, siz: 3
Mode: 4 del: 5, siz: 4
Mode: 4 del: 6, siz: 1
Mode: 4 del: 6, siz: 2
Mode: 4 del: 6, siz: 3
Mode: 4 del: 6, siz: 4
Mode: 5 del: 0, siz: 1
Mode: 5 del: 0, siz: 2
Mode: 5 del: 0, siz: 3
Mode: 5 del: 0, siz: 4
Mode: 5 del: 1, siz: 1
Mode: 5 del: 1, siz: 2
Mode: 5 del: 1, siz: 3
Mode: 5 del: 1, siz: 4
Mode: 5 del: 2, siz: 1
Mode: 5 del: 2, siz: 2
Mode: 5 del: 2, siz: 3
Mode: 5 del: 2, siz: 4
Mode: 5 del: 3, siz: 1
Mode: 5 del: 3, siz: 2
Mode: 5 del: 3, siz: 3
Mode: 5 del: 3, siz: 4
Mode: 5 del: 4, siz: 1
Mode: 5 del: 4, siz: 2
Mode: 5 del: 4, siz: 3
Mode: 5 del: 4, siz: 4
Mode: 5 del: 5, siz: 1
Mode: 5 del: 5, siz: 2
Mode: 5 del: 5, siz: 3
Mode: 5 del: 5, siz: 4
Mode: 5 del: 6, siz: 1
Mode: 5 del: 6, siz: 2
Mode: 5 del: 6, siz: 3
Mode: 5 del: 6, siz: 4
Mode: 6 del: 0, siz: 1
Mode: 6 del: 0, siz: 2
Mode: 6 del: 0, siz: 3
Mode: 6 del: 0, siz: 4
Mode: 6 del: 1, siz: 1
Mode: 6 del: 1, siz: 2
Mode: 6 del: 1, siz: 3
Mode: 6 del: 1, siz: 4
Mode: 6 del: 2, siz: 1
Mode: 6 del: 2, siz: 2
Mode: 6 del: 2, siz: 3
Mode: 6 del: 2, siz: 4
Mode: 6 del: 3, siz: 1
Mode: 6 del: 3, siz: 2
Mode: 6 del: 3, siz: 3
Mode: 6 del: 3, siz: 4
Mode: 6 del: 4, siz: 1
Mode: 6 del: 4, siz: 2
Mode: 6 del: 4, siz: 3
Mode: 6 del: 4, siz: 4
Mode: 6 del: 5, siz: 1
Mode: 6 del: 5, siz: 2
Mode: 6 del: 5, siz: 3
Mode: 6 del: 5, siz: 4
Mode: 6 del: 6, siz: 1
Mode: 6 del: 6, siz: 2
Mode: 6 del: 6, siz: 3
Mode: 6 del: 6, siz: 4
Mode: 7 del: 0, siz: 1
Mode: 7 del: 0, siz: 2
Mode: 7 del: 0, siz: 3
Mode: 7 del: 0, siz: 4
Mode: 7 del: 1, siz: 1
Mode: 7 del: 1, siz: 2
Mode: 7 del: 1, siz: 3
Mode: 7 del: 1, siz: 4
Mode: 7 del: 2, siz: 1
Mode: 7 del: 2, siz: 2
Mode: 7 del: 2, siz: 3
Mode: 7 del: 2, siz: 4
Mode: 7 del: 3, siz: 1
Mode: 7 del: 3, siz: 2
Mode: 7 del: 3, siz: 3
Mode: 7 del: 3, siz: 4
Mode: 7 del: 4, siz: 1
Mode: 7 del: 4, siz: 2
Mode: 7 del: 4, siz: 3
Mode: 7 del: 4, siz: 4
Mode: 7 del: 5, siz: 1
Mode: 7 del: 5, siz: 2
Mode: 7 del: 5, siz: 3
Mode: 7 del: 5, siz: 4
Mode: 7 del: 6, siz: 1
Mode: 7 del: 6, siz: 2
Mode: 7 del: 6, siz: 3
Mode: 7 del: 6, siz: 4
Mode: 8 del: 0, siz: 1
Mode: 8 del: 0, siz: 2
Mode: 8 del: 0, siz: 3
Mode: 8 del: 0, siz: 4
Mode: 8 del: 1, siz: 1
Mode: 8 del: 1, siz: 2
Mode: 8 del: 1, siz: 3
Mode: 8 del: 1, siz: 4
Mode: 8 del: 2, siz: 1
Mode: 8 del: 2, siz: 2
Mode: 8 del: 2, siz: 3
Mode: 8 del: 2, siz: 4
Mode: 8 del: 3, siz: 1
Mode: 8 del: 3, siz: 2
Mode: 8 del: 3, siz: 3
Mode: 8 del: 3, siz: 4
Mode: 8 del: 4, siz: 1
Mode: 8 del: 4, siz: 2
Mode: 8 del: 4, siz: 3
Mode: 8 del: 4, siz: 4
Mode: 8 del: 5, siz: 1
Mode: 8 del: 5, siz: 2
Mode: 8 del: 5, siz: 3
Mode: 8 del: 5, siz: 4
Mode: 8 del: 6, siz: 1
Mode: 8 del: 6, siz: 2
Mode: 8 del: 6, siz: 3
Mode: 8 del: 6, siz: 4
Mode: 9 del: 0, siz: 1
Mode: 9 del: 0, siz: 2
Mode: 9 del: 0, siz: 3
Mode: 9 del: 0, siz: 4
Mode: 9 del: 1, siz: 1
Mode: 9 del: 1, siz: 2
Mode: 9 del: 1, siz: 3
Mode: 9 del: 1, siz: 4
Mode: 9 del: 2, siz: 1
Mode: 9 del: 2, siz: 2
Mode: 9 del: 2, siz: 3
Mode: 9 del: 2, siz: 4
Mode: 9 del: 3, siz: 1
Mode: 9 del: 3, siz: 2
Mode: 9 del: 3, siz: 3
Mode: 9 del: 3, siz: 4
Mode: 9 del: 4, siz: 1
Mode: 9 del: 4, siz: 2
Mode: 9 del: 4, siz: 3
Mode: 9 del: 4, siz: 4
Mode: 9 del: 5, siz: 1
Mode: 9 del: 5, siz: 2
Mode: 9 del: 5, siz: 3
Mode: 9 del: 5, siz: 4
Mode: 9 del: 6, siz: 1
Mode: 9 del: 6, siz: 2
Mode: 9 del: 6, siz: 3
Mode: 9 del: 6, siz: 4
Mode: 10 del: 0, siz: 1
Mode: 10 del: 0, siz: 2
Mode: 10 del: 0, siz: 3
Mode: 10 del: 0, siz: 4
Mode: 10 del: 1, siz: 1
Mode: 10 del: 1, siz: 2
Mode: 10 del: 1, siz: 3
Mode: 10 del: 1, siz: 4
Mode: 10 del: 2, siz: 1
Mode: 10 del: 2, siz: 2
Mode: 10 del: 2, siz: 3
Mode: 10 del: 2, siz: 4
Mode: 10 del: 3, siz: 1
Mode: 10 del: 3, siz: 2
Mode: 10 del: 3, siz: 3
Mode: 10 del: 3, siz: 4
Mode: 10 del: 4, siz: 1
Mode: 10 del: 4, siz: 2
Mode: 10 del: 4, siz: 3
Mode: 10 del: 4, siz: 4
Mode: 10 del: 5, siz: 1
Mode: 10 del: 5, siz: 2
Mode: 10 del: 5, siz: 3
Mode: 10 del: 5, siz: 4
Mode: 10 del: 6, siz: 1
Mode: 10 del: 6, siz: 2
Mode: 10 del: 6, siz: 3
Mode: 10 del: 6, siz: 4
Mode: 11 del: 0, siz: 1
Mode: 11 del: 0, siz: 2
Mode: 11 del: 0, siz: 3
Mode: 11 del: 0, siz: 4
Mode: 11 del: 1, siz: 1
Mode: 11 del: 1, siz: 2
Mode: 11 del: 1, siz: 3
Mode: 11 del: 1, siz: 4
Mode: 11 del: 2, siz: 1
Mode: 11 del: 2, siz: 2
Mode: 11 del: 2, siz: 3
Mode: 11 del: 2, siz: 4
Mode: 11 del: 3, siz: 1
Mode: 11 del: 3, siz: 2
Mode: 11 del: 3, siz: 3
Mode: 11 del: 3, siz: 4
Mode: 11 del: 4, siz: 1
Mode: 11 del: 4, siz: 2
Mode: 11 del: 4, siz: 3
Mode: 11 del: 4, siz: 4
Mode: 11 del: 5, siz: 1
Mode: 11 del: 5, siz: 2
Mode: 11 del: 5, siz: 3
Mode: 11 del: 5, siz: 4
Mode: 11 del: 6, siz: 1
Mode: 11 del: 6, siz: 2
Mode: 11 del: 6, siz: 3
Mode: 11 del: 6, siz: 4
Mode: 12 del: 0, siz: 1
Mode: 12 del: 0, siz: 2
Mode: 12 del: 0, siz: 3
Mode: 12 del: 0, siz: 4
Mode: 12 del: 1, siz: 1
Mode: 12 del: 1, siz: 2
Mode: 12 del: 1, siz: 3
Mode: 12 del: 1, siz: 4
Mode: 12 del: 2, siz: 1
Mode: 12 del: 2, siz: 2
Mode: 12 del: 2, siz: 3
Mode: 12 del: 2, siz: 4
Mode: 12 del: 3, siz: 1
Mode: 12 del: 3, siz: 2
Mode: 12 del: 3, siz: 3
Mode: 12 del: 3, siz: 4
Mode: 12 del: 4, siz: 1
Mode: 12 del: 4, siz: 2
Mode: 12 del: 4, siz: 3
Mode: 12 del: 4, siz: 4
Mode: 12 del: 5, siz: 1
Mode: 12 del: 5, siz: 2
Mode: 12 del: 5, siz: 3
Mode: 12 del: 5, siz: 4
Mode: 12 del: 6, siz: 1
Mode: 12 del: 6, siz: 2
Mode: 12 del: 6, siz: 3
Mode: 12 del: 6, siz: 4
Mode: 13 del: 0, siz: 1
Mode: 13 del: 0, siz: 2
Mode: 13 del: 0, siz: 3
Mode: 13 del: 0, siz: 4
Mode: 13 del: 1, siz: 1
Mode: 13 del: 1, siz: 2
Mode: 13 del: 1, siz: 3
Mode: 13 del: 1, siz: 4
Mode: 13 del: 2, siz: 1
Mode: 13 del: 2, siz: 2
Mode: 13 del: 2, siz: 3
Mode: 13 del: 2, siz: 4
Mode: 13 del: 3, siz: 1
Mode: 13 del: 3, siz: 2
Mode: 13 del: 3, siz: 3
Mode: 13 del: 3, siz: 4
Mode: 13 del: 4, siz: 1
Mode: 13 del: 4, siz: 2
Mode: 13 del: 4, siz: 3
Mode: 13 del: 4, siz: 4
Mode: 13 del: 5, siz: 1
Mode: 13 del: 5, siz: 2
Mode: 13 del: 5, siz: 3
Mode: 13 del: 5, siz: 4
Mode: 13 del: 6, siz: 1
Mode: 13 del: 6, siz: 2
Mode: 13 del: 6, siz: 3
Mode: 13 del: 6, siz: 4
Mode: 14 del: 0, siz: 1
Mode: 14 del: 0, siz: 2
Mode: 14 del: 0, siz: 3
Mode: 14 del: 0, siz: 4
Mode: 14 del: 1, siz: 1
Mode: 14 del: 1, siz: 2
Mode: 14 del: 1, siz: 3
Mode: 14 del: 1, siz: 4
Mode: 14 del: 2, siz: 1
Mode: 14 del: 2, siz: 2
Mode: 14 del: 2, siz: 3
Mode: 14 del: 2, siz: 4
Mode: 14 del: 3, siz: 1
Mode: 14 del: 3, siz: 2
Mode: 14 del: 3, siz: 3
Mode: 14 del: 3, siz: 4
Mode: 14 del: 4, siz: 1
Mode: 14 del: 4, siz: 2
Mode: 14 del: 4, siz: 3
Mode: 14 del: 4, siz: 4
Mode: 14 del: 5, siz: 1
Mode: 14 del: 5, siz: 2
Mode: 14 del: 5, siz: 3
Mode: 14 del: 5, siz: 4
Mode: 14 del: 6, siz: 1
Mode: 14 del: 6, siz: 2
Mode: 14 del: 6, siz: 3
Mode: 14 del: 6, siz: 4
Mode: 15 del: 0, siz: 1
Mode: 15 del: 0, siz: 2
Mode: 15 del: 0, siz: 3
Mode: 15 del: 0, siz: 4
Mode: 15 del: 1, siz: 1
Mode: 15 del: 1, siz: 2
Mode: 15 del: 1, siz: 3
Mode: 15 del: 1, siz: 4
Mode: 15 del: 2, siz: 1
Mode: 15 del: 2, siz: 2
Mode: 15 del: 2, siz: 3
Mode: 15 del: 2, siz: 4
Mode: 15 del: 3, siz: 1
Mode: 15 del: 3, siz: 2
Mode: 15 del: 3, siz: 3
Mode: 15 del: 3, siz: 4
Mode: 15 del: 4, siz: 1
Mode: 15 del: 4, siz: 2
Mode: 15 del: 4, siz: 3
Mode: 15 del: 4, siz: 4
Mode: 15 del: 5, siz: 1
Mode: 15 del: 5, siz: 2
Mode: 15 del: 5, siz: 3
Mode: 15 del: 5, siz: 4
Mode: 15 del: 6, siz: 1
Mode: 15 del: 6, siz: 2
Mode: 15 del: 6, siz: 3
Mode: 15 del: 6, siz: 4
Mode: 16 del: 0, siz: 1
Mode: 16 del: 0, siz: 2
Mode: 16 del: 0, siz: 3
Mode: 16 del: 0, siz: 4
Mode: 16 del: 1, siz: 1
Mode: 16 del: 1, siz: 2
Mode: 16 del: 1, siz: 3
Mode: 16 del: 1, siz: 4
Mode: 16 del: 2, siz: 1
Mode: 16 del: 2, siz: 2
Mode: 16 del: 2, siz: 3
Mode: 16 del: 2, siz: 4
Mode: 16 del: 3, siz: 1
Mode: 16 del: 3, siz: 2
Mode: 16 del: 3, siz: 3
Mode: 16 del: 3, siz: 4
Mode: 16 del: 4, siz: 1
Mode: 16 del: 4, siz: 2
Mode: 16 del: 4, siz: 3
Mode: 16 del: 4, siz: 4
Mode: 16 del: 5, siz: 1
Mode: 16 del: 5, siz: 2
Mode: 16 del: 5, siz: 3
Mode: 16 del: 5, siz: 4
Mode: 16 del: 6, siz: 1
Mode: 16 del: 6, siz: 2
Mode: 16 del: 6, siz: 3
Mode: 16 del: 6, siz: 4
Mode: 17 del: 0, siz: 1
Mode: 17 del: 0, siz: 2
Mode: 17 del: 0, siz: 3
Mode: 17 del: 0, siz: 4
Mode: 17 del: 1, siz: 1
Mode: 17 del: 1, siz: 2
Mode: 17 del: 1, siz: 3
Mode: 17 del: 1, siz: 4
Mode: 17 del: 2, siz: 1
Mode: 17 del: 2, siz: 2
Mode: 17 del: 2, siz: 3
Mode: 17 del: 2, siz: 4
Mode: 17 del: 3, siz: 1
Mode: 17 del: 3, siz: 2
Mode: 17 del: 3, siz: 3
Mode: 17 del: 3, siz: 4
Mode: 17 del: 4, siz: 1
Mode: 17 del: 4, siz: 2
Mode: 17 del: 4, siz: 3
Mode: 17 del: 4, siz: 4
Mode: 17 del: 5, siz: 1
Mode: 17 del: 5, siz: 2
Mode: 17 del: 5, siz: 3
Mode: 17 del: 5, siz: 4
Mode: 17 del: 6, siz: 1
Mode: 17 del: 6, siz: 2
Mode: 17 del: 6, siz: 3
Mode: 17 del: 6, siz: 4
Mode: 18 del: 0, siz: 1
Mode: 18 del: 0, siz: 2
Mode: 18 del: 0, siz: 3
Mode: 18 del: 0, siz: 4
Mode: 18 del: 1, siz: 1
Mode: 18 del: 1, siz: 2
Mode: 18 del: 1, siz: 3
Mode: 18 del: 1, siz: 4
Mode: 18 del: 2, siz: 1
Mode: 18 del: 2, siz: 2
Mode: 18 del: 2, siz: 3
Mode: 18 del: 2, siz: 4
Mode: 18 del: 3, siz: 1
Mode: 18 del: 3, siz: 2
Mode: 18 del: 3, siz: 3
Mode: 18 del: 3, siz: 4
Mode: 18 del: 4, siz: 1
Mode: 18 del: 4, siz: 2
Mode: 18 del: 4, siz: 3
Mode: 18 del: 4, siz: 4
Mode: 18 del: 5, siz: 1
Mode: 18 del: 5, siz: 2
Mode: 18 del: 5, siz: 3
Mode: 18 del: 5, siz: 4
Mode: 18 del: 6, siz: 1
Mode: 18 del: 6, siz: 2
Mode: 18 del: 6, siz: 3
Mode: 18 del: 6, siz: 4
Mode: 19 del: 0, siz: 1
Mode: 19 del: 0, siz: 2
Mode: 19 del: 0, siz: 3
Mode: 19 del: 0, siz: 4
Mode: 19 del: 1, siz: 1
Mode: 19 del: 1, siz: 2
Mode: 19 del: 1, siz: 3
Mode: 19 del: 1, siz: 4
Mode: 19 del: 2, siz: 1
Mode: 19 del: 2, siz: 2
Mode: 19 del: 2, siz: 3
Mode: 19 del: 2, siz: 4
Mode: 19 del: 3, siz: 1
Mode: 19 del: 3, siz: 2
Mode: 19 del: 3, siz: 3
Mode: 19 del: 3, siz: 4
Mode: 19 del: 4, siz: 1
Mode: 19 del: 4, siz: 2
Mode: 19 del: 4, siz: 3
Mode: 19 del: 4, siz: 4
Mode: 19 del: 5, siz: 1
Mode: 19 del: 5, siz: 2
Mode: 19 del: 5, siz: 3
Mode: 19 del: 5, siz: 4
Mode: 19 del: 6, siz: 1
Mode: 19 del: 6, siz: 2
Mode: 19 del: 6, siz: 3
Mode: 19 del: 6, siz: 4
Mode: 20 del: 0, siz: 1
Mode: 20 del: 0, siz: 2
Mode: 20 del: 0, siz: 3
Mode: 20 del: 0, siz: 4
Mode: 20 del: 1, siz: 1
Mode: 20 del: 1, siz: 2
Mode: 20 del: 1, siz: 3
Mode: 20 del: 1, siz: 4
Mode: 20 del: 2, siz: 1
Mode: 20 del: 2, siz: 2
Mode: 20 del: 2, siz: 3
Mode: 20 del: 2, siz: 4
Mode: 20 del: 3, siz: 1
Mode: 20 del: 3, siz: 2
Mode: 20 del: 3, siz: 3
Mode: 20 del: 3, siz: 4
Mode: 20 del: 4, siz: 1
Mode: 20 del: 4, siz: 2
Mode: 20 del: 4, siz: 3
Mode: 20 del: 4, siz: 4
Mode: 20 del: 5, siz: 1
Mode: 20 del: 5, siz: 2
Mode: 20 del: 5, siz: 3
Mode: 20 del: 5, siz: 4
Mode: 20 del: 6, siz: 1
Mode: 20 del: 6, siz: 2
Mode: 20 del: 6, siz: 3
Mode: 20 del: 6, siz: 4
Mode: 21 del: 0, siz: 1
Mode: 21 del: 0, siz: 2
Mode: 21 del: 0, siz: 3
Mode: 21 del: 0, siz: 4
Mode: 21 del: 1, siz: 1
Mode: 21 del: 1, siz: 2
Mode: 21 del: 1, siz: 3
Mode: 21 del: 1, siz: 4
Mode: 21 del: 2, siz: 1
Mode: 21 del: 2, siz: 2
Mode: 21 del: 2, siz: 3
Mode: 21 del: 2, siz: 4
Mode: 21 del: 3, siz: 1
Mode: 21 del: 3, siz: 2
Mode: 21 del: 3, siz: 3
Mode: 21 del: 3, siz: 4
Mode: 21 del: 4, siz: 1
Mode: 21 del: 4, siz: 2
Mode: 21 del: 4, siz: 3
Mode: 21 del: 4, siz: 4
Mode: 21 del: 5, siz: 1
Mode: 21 del: 5, siz: 2
Mode: 21 del: 5, siz: 3
Mode: 21 del: 5, siz: 4
Mode: 21 del: 6, siz: 1
Mode: 21 del: 6, siz: 2
Mode: 21 del: 6, siz: 3
Mode: 21 del: 6, siz: 4
Mode: 22 del: 0, siz: 1
Mode: 22 del: 0, siz: 2
Mode: 22 del: 0, siz: 3
Mode: 22 del: 0, siz: 4
Mode: 22 del: 1, siz: 1
Mode: 22 del: 1, siz: 2
Mode: 22 del: 1, siz: 3
Mode: 22 del: 1, siz: 4
Mode: 22 del: 2, siz: 1
Mode: 22 del: 2, siz: 2
Mode: 22 del: 2, siz: 3
Mode: 22 del: 2, siz: 4
Mode: 22 del: 3, siz: 1
Mode: 22 del: 3, siz: 2
Mode: 22 del: 3, siz: 3
Mode: 22 del: 3, siz: 4
Mode: 22 del: 4, siz: 1
Mode: 22 del: 4, siz: 2
Mode: 22 del: 4, siz: 3
Mode: 22 del: 4, siz: 4
Mode: 22 del: 5, siz: 1
Mode: 22 del: 5, siz: 2
